[
    {
        "_id": "qwe789",
        "name": "Apple Watch Ultra",
        "description": "Titanium Case with Orange Alpine Loop",
        "price": 52990.00,
        "stocks": 1000,
        "isActive": true,
        "SKU": "00000001"
    },

    {
        "_id": "bnm456",
        "name": "Apple Watch Series 8",
        "description": "Starlight Aluminum Case with Braided Solo Loop",
        "price": 28990.00,
        "stocks": 2000,
        "isActive": true,
        "SKU": "00000002"
    },

    {
        "_id": "asd123",
        "name": "Apple Watch Hermès",
        "description": "Silver Stainless Steel Case with Gourmette Metal Double Tour",
        "price": 104990.00,
        "stocks": 500,
        "isActive": true,
        "SKU": "00000003"
    }
]
  
